// This code was created by PyGmsh v3.2.1.
p0 = newp;
Point(p0) = {1.0, 0.0, 0.0, 0.05};
p1 = newp;
Point(p1) = {0.99902299999999999, 0.00020900000000000001, 0.0, 0.05};
p2 = newp;
Point(p2) = {0.99609499999999995, 0.00083199999999999995, 0.0, 0.05};
p3 = newp;
Point(p3) = {0.991228, 0.0018630000000000001, 0.0, 0.05};
p4 = newp;
Point(p4) = {0.98443800000000004, 0.0032889999999999998, 0.0, 0.05};
p5 = newp;
Point(p5) = {0.97575199999999995, 0.0050920000000000002, 0.0, 0.05};
p6 = newp;
Point(p6) = {0.96520099999999998, 0.0072519999999999998, 0.0, 0.05};
p7 = newp;
Point(p7) = {0.95282500000000003, 0.0097439999999999992, 0.0, 0.05};
p8 = newp;
Point(p8) = {0.93866899999999998, 0.012538000000000001, 0.0, 0.05};
p9 = newp;
Point(p9) = {0.92278800000000005, 0.015605000000000001, 0.0, 0.05};
p10 = newp;
Point(p10) = {0.90524000000000004, 0.01891, 0.0, 0.05};
p11 = newp;
Point(p11) = {0.88609199999999999, 0.022419000000000001, 0.0, 0.05};
p12 = newp;
Point(p12) = {0.86541699999999999, 0.026096000000000001, 0.0, 0.05};
p13 = newp;
Point(p13) = {0.84329399999999999, 0.029902999999999999, 0.0, 0.05};
p14 = newp;
Point(p14) = {0.81980699999999995, 0.033804000000000001, 0.0, 0.05};
p15 = newp;
Point(p15) = {0.79504699999999995, 0.037760000000000002, 0.0, 0.05};
p16 = newp;
Point(p16) = {0.76910900000000004, 0.041734, 0.0, 0.05};
p17 = newp;
Point(p17) = {0.74209400000000003, 0.045689, 0.0, 0.05};
p18 = newp;
Point(p18) = {0.71410700000000005, 0.049588, 0.0, 0.05};
p19 = newp;
Point(p19) = {0.68525800000000003, 0.053393999999999997, 0.0, 0.05};
p20 = newp;
Point(p20) = {0.65565899999999999, 0.057070999999999997, 0.0, 0.05};
p21 = newp;
Point(p21) = {0.62542600000000004, 0.060583999999999999, 0.0, 0.05};
p22 = newp;
Point(p22) = {0.59467999999999999, 0.063896999999999995, 0.0, 0.05};
p23 = newp;
Point(p23) = {0.56354199999999999, 0.066976999999999995, 0.0, 0.05};
p24 = newp;
Point(p24) = {0.53213600000000005, 0.069789000000000004, 0.0, 0.05};
p25 = newp;
Point(p25) = {0.500587, 0.072303000000000006, 0.0, 0.05};
p26 = newp;
Point(p26) = {0.46902199999999999, 0.074485999999999997, 0.0, 0.05};
p27 = newp;
Point(p27) = {0.43756699999999998, 0.076312000000000005, 0.0, 0.05};
p28 = newp;
Point(p28) = {0.40634999999999999, 0.077752000000000002, 0.0, 0.05};
p29 = newp;
Point(p29) = {0.37529699999999999, 0.078742999999999994, 0.0, 0.05};
p30 = newp;
Point(p30) = {0.34467999999999999, 0.07918, 0.0, 0.05};
p31 = newp;
Point(p31) = {0.31467800000000001, 0.079050999999999996, 0.0, 0.05};
p32 = newp;
Point(p32) = {0.28541800000000001, 0.078354999999999994, 0.0, 0.05};
p33 = newp;
Point(p33) = {0.257025, 0.077095999999999998, 0.0, 0.05};
p34 = newp;
Point(p34) = {0.22961799999999999, 0.075287000000000007, 0.0, 0.05};
p35 = newp;
Point(p35) = {0.20630118004449097, 0.073211045149750908, 0.0, 0.05};
p36 = newp;
Point(p36) = {0.20604995795891348, 0.075698390615044797, 0.0, 0.05};
p37 = newp;
Point(p37) = {0.20008093217362199, 0.075093880297881638, 0.0, 0.05};
p38 = newp;
Point(p38) = {0.20033215425919948, 0.072606534832587749, 0.0, 0.05};
p39 = newp;
Point(p39) = {0.17822199999999999, 0.070096000000000006, 0.0, 0.05};
p40 = newp;
Point(p40) = {0.154449, 0.066769999999999996, 0.0, 0.05};
p41 = newp;
Point(p41) = {0.13209399999999999, 0.063005000000000005, 0.0, 0.05};
p42 = newp;
Point(p42) = {0.111248, 0.058841999999999998, 0.0, 0.05};
p43 = newp;
Point(p43) = {0.091995999999999994, 0.054324999999999998, 0.0, 0.05};
p44 = newp;
Point(p44) = {0.074414999999999995, 0.049503999999999999, 0.0, 0.05};
p45 = newp;
Point(p45) = {0.058573, 0.044427000000000001, 0.0, 0.05};
p46 = newp;
Point(p46) = {0.044532000000000002, 0.039143999999999998, 0.0, 0.05};
p47 = newp;
Point(p47) = {0.032342999999999997, 0.033703999999999998, 0.0, 0.05};
p48 = newp;
Point(p48) = {0.022051000000000001, 0.028152, 0.0, 0.05};
p49 = newp;
Point(p49) = {0.013691999999999999, 0.022530999999999999, 0.0, 0.05};
p50 = newp;
Point(p50) = {0.0072919999999999999, 0.016878000000000001, 0.0, 0.05};
p51 = newp;
Point(p51) = {0.0028700000000000002, 0.011224, 0.0, 0.05};
p52 = newp;
Point(p52) = {0.00043899999999999999, 0.0055919999999999997, 0.0, 0.05};
p53 = newp;
Point(p53) = {0.0, 0.0, 0.0, 0.05};
p54 = newp;
Point(p54) = {0.0015349999999999999, -0.0053949999999999996, 0.0, 0.05};
p55 = newp;
Point(p55) = {0.0050150000000000004, -0.010439, 0.0, 0.05};
p56 = newp;
Point(p56) = {0.010421, -0.015126000000000001, 0.0, 0.05};
p57 = newp;
Point(p57) = {0.017725000000000001, -0.019451, 0.0, 0.05};
p58 = newp;
Point(p58) = {0.026891999999999999, -0.023408000000000002, 0.0, 0.05};
p59 = newp;
Point(p59) = {0.037879999999999997, -0.02699, 0.0, 0.05};
p60 = newp;
Point(p60) = {0.050640999999999999, -0.030193000000000001, 0.0, 0.05};
p61 = newp;
Point(p61) = {0.065119999999999997, -0.033014000000000002, 0.0, 0.05};
p62 = newp;
Point(p62) = {0.081256999999999996, -0.035451000000000003, 0.0, 0.05};
p63 = newp;
Point(p63) = {0.098987000000000006, -0.037506999999999999, 0.0, 0.05};
p64 = newp;
Point(p64) = {0.118239, -0.039184999999999998, 0.0, 0.05};
p65 = newp;
Point(p65) = {0.138937, -0.040493000000000001, 0.0, 0.05};
p66 = newp;
Point(p66) = {0.16100400000000001, -0.041444000000000002, 0.0, 0.05};
p67 = newp;
Point(p67) = {0.18435399999999999, -0.042054000000000001, 0.0, 0.05};
p68 = newp;
Point(p68) = {0.20590220787849947, -0.042307683887766269, 0.0, 0.05};
p69 = newp;
Point(p69) = {0.2058882143525757, -0.04480764472370595, 0.0, 0.05};
p70 = newp;
Point(p70) = {0.21188800632819654, -0.044842025272893139, 0.0, 0.05};
p71 = newp;
Point(p71) = {0.21190199985412031, -0.042342064436953458, 0.0, 0.05};
p72 = newp;
Point(p72) = {0.23455500000000001, -0.042334999999999998, 0.0, 0.05};
p73 = newp;
Point(p73) = {0.26122099999999998, -0.042057999999999998, 0.0, 0.05};
p74 = newp;
Point(p74) = {0.288802, -0.041541000000000002, 0.0, 0.05};
p75 = newp;
Point(p75) = {0.31719700000000001, -0.040816999999999999, 0.0, 0.05};
p76 = newp;
Point(p76) = {0.34630300000000003, -0.039923, 0.0, 0.05};
p77 = newp;
Point(p77) = {0.37601299999999999, -0.038892000000000003, 0.0, 0.05};
p78 = newp;
Point(p78) = {0.40626899999999999, -0.037756999999999999, 0.0, 0.05};
p79 = newp;
Point(p79) = {0.43709900000000002, -0.036466999999999999, 0.0, 0.05};
p80 = newp;
Point(p80) = {0.46818700000000002, -0.035008999999999998, 0.0, 0.05};
p81 = newp;
Point(p81) = {0.499413, -0.033413999999999999, 0.0, 0.05};
p82 = newp;
Point(p82) = {0.53065399999999996, -0.031708, 0.0, 0.05};
p83 = newp;
Point(p83) = {0.56179100000000004, -0.029916999999999999, 0.0, 0.05};
p84 = newp;
Point(p84) = {0.59270100000000003, -0.028066000000000001, 0.0, 0.05};
p85 = newp;
Point(p85) = {0.62326400000000004, -0.026176000000000001, 0.0, 0.05};
p86 = newp;
Point(p86) = {0.65335799999999999, -0.024268999999999999, 0.0, 0.05};
p87 = newp;
Point(p87) = {0.682867, -0.022360000000000001, 0.0, 0.05};
p88 = newp;
Point(p88) = {0.71167199999999997, -0.020466000000000002, 0.0, 0.05};
p89 = newp;
Point(p89) = {0.73965899999999996, -0.018599999999999998, 0.0, 0.05};
p90 = newp;
Point(p90) = {0.76671800000000001, -0.016774000000000001, 0.0, 0.05};
p91 = newp;
Point(p91) = {0.79273800000000005, -0.014999, 0.0, 0.05};
p92 = newp;
Point(p92) = {0.81761700000000004, -0.013284000000000001, 0.0, 0.05};
p93 = newp;
Point(p93) = {0.84125300000000003, -0.011637, 0.0, 0.05};
p94 = newp;
Point(p94) = {0.86355099999999996, -0.010068000000000001, 0.0, 0.05};
p95 = newp;
Point(p95) = {0.88442100000000001, -0.0085830000000000004, 0.0, 0.05};
p96 = newp;
Point(p96) = {0.90377700000000005, -0.0071910000000000003, 0.0, 0.05};
p97 = newp;
Point(p97) = {0.92154000000000003, -0.0058999999999999999, 0.0, 0.05};
p98 = newp;
Point(p98) = {0.93763700000000005, -0.0047169999999999998, 0.0, 0.05};
p99 = newp;
Point(p99) = {0.95200200000000001, -0.00365, 0.0, 0.05};
p100 = newp;
Point(p100) = {0.96457599999999999, -0.0027079999999999999, 0.0, 0.05};
p101 = newp;
Point(p101) = {0.97530499999999998, -0.0018959999999999999, 0.0, 0.05};
p102 = newp;
Point(p102) = {0.98414500000000005, -0.001222, 0.0, 0.05};
p103 = newp;
Point(p103) = {0.99106000000000005, -0.00069099999999999999, 0.0, 0.05};
p104 = newp;
Point(p104) = {0.99602000000000002, -0.00030800000000000001, 0.0, 0.05};
p105 = newp;
Point(p105) = {0.999004, -7.7000000000000001e-05, 0.0, 0.05};
l0 = newl;
Line(l0) = {p0, p1};
l1 = newl;
Line(l1) = {p1, p2};
l2 = newl;
Line(l2) = {p2, p3};
l3 = newl;
Line(l3) = {p3, p4};
l4 = newl;
Line(l4) = {p4, p5};
l5 = newl;
Line(l5) = {p5, p6};
l6 = newl;
Line(l6) = {p6, p7};
l7 = newl;
Line(l7) = {p7, p8};
l8 = newl;
Line(l8) = {p8, p9};
l9 = newl;
Line(l9) = {p9, p10};
l10 = newl;
Line(l10) = {p10, p11};
l11 = newl;
Line(l11) = {p11, p12};
l12 = newl;
Line(l12) = {p12, p13};
l13 = newl;
Line(l13) = {p13, p14};
l14 = newl;
Line(l14) = {p14, p15};
l15 = newl;
Line(l15) = {p15, p16};
l16 = newl;
Line(l16) = {p16, p17};
l17 = newl;
Line(l17) = {p17, p18};
l18 = newl;
Line(l18) = {p18, p19};
l19 = newl;
Line(l19) = {p19, p20};
l20 = newl;
Line(l20) = {p20, p21};
l21 = newl;
Line(l21) = {p21, p22};
l22 = newl;
Line(l22) = {p22, p23};
l23 = newl;
Line(l23) = {p23, p24};
l24 = newl;
Line(l24) = {p24, p25};
l25 = newl;
Line(l25) = {p25, p26};
l26 = newl;
Line(l26) = {p26, p27};
l27 = newl;
Line(l27) = {p27, p28};
l28 = newl;
Line(l28) = {p28, p29};
l29 = newl;
Line(l29) = {p29, p30};
l30 = newl;
Line(l30) = {p30, p31};
l31 = newl;
Line(l31) = {p31, p32};
l32 = newl;
Line(l32) = {p32, p33};
l33 = newl;
Line(l33) = {p33, p34};
l34 = newl;
Line(l34) = {p34, p35};
l35 = newl;
Line(l35) = {p35, p36};
l36 = newl;
Line(l36) = {p36, p37};
l37 = newl;
Line(l37) = {p37, p38};
l38 = newl;
Line(l38) = {p38, p39};
l39 = newl;
Line(l39) = {p39, p40};
l40 = newl;
Line(l40) = {p40, p41};
l41 = newl;
Line(l41) = {p41, p42};
l42 = newl;
Line(l42) = {p42, p43};
l43 = newl;
Line(l43) = {p43, p44};
l44 = newl;
Line(l44) = {p44, p45};
l45 = newl;
Line(l45) = {p45, p46};
l46 = newl;
Line(l46) = {p46, p47};
l47 = newl;
Line(l47) = {p47, p48};
l48 = newl;
Line(l48) = {p48, p49};
l49 = newl;
Line(l49) = {p49, p50};
l50 = newl;
Line(l50) = {p50, p51};
l51 = newl;
Line(l51) = {p51, p52};
l52 = newl;
Line(l52) = {p52, p53};
l53 = newl;
Line(l53) = {p53, p54};
l54 = newl;
Line(l54) = {p54, p55};
l55 = newl;
Line(l55) = {p55, p56};
l56 = newl;
Line(l56) = {p56, p57};
l57 = newl;
Line(l57) = {p57, p58};
l58 = newl;
Line(l58) = {p58, p59};
l59 = newl;
Line(l59) = {p59, p60};
l60 = newl;
Line(l60) = {p60, p61};
l61 = newl;
Line(l61) = {p61, p62};
l62 = newl;
Line(l62) = {p62, p63};
l63 = newl;
Line(l63) = {p63, p64};
l64 = newl;
Line(l64) = {p64, p65};
l65 = newl;
Line(l65) = {p65, p66};
l66 = newl;
Line(l66) = {p66, p67};
l67 = newl;
Line(l67) = {p67, p68};
l68 = newl;
Line(l68) = {p68, p69};
l69 = newl;
Line(l69) = {p69, p70};
l70 = newl;
Line(l70) = {p70, p71};
l71 = newl;
Line(l71) = {p71, p72};
l72 = newl;
Line(l72) = {p72, p73};
l73 = newl;
Line(l73) = {p73, p74};
l74 = newl;
Line(l74) = {p74, p75};
l75 = newl;
Line(l75) = {p75, p76};
l76 = newl;
Line(l76) = {p76, p77};
l77 = newl;
Line(l77) = {p77, p78};
l78 = newl;
Line(l78) = {p78, p79};
l79 = newl;
Line(l79) = {p79, p80};
l80 = newl;
Line(l80) = {p80, p81};
l81 = newl;
Line(l81) = {p81, p82};
l82 = newl;
Line(l82) = {p82, p83};
l83 = newl;
Line(l83) = {p83, p84};
l84 = newl;
Line(l84) = {p84, p85};
l85 = newl;
Line(l85) = {p85, p86};
l86 = newl;
Line(l86) = {p86, p87};
l87 = newl;
Line(l87) = {p87, p88};
l88 = newl;
Line(l88) = {p88, p89};
l89 = newl;
Line(l89) = {p89, p90};
l90 = newl;
Line(l90) = {p90, p91};
l91 = newl;
Line(l91) = {p91, p92};
l92 = newl;
Line(l92) = {p92, p93};
l93 = newl;
Line(l93) = {p93, p94};
l94 = newl;
Line(l94) = {p94, p95};
l95 = newl;
Line(l95) = {p95, p96};
l96 = newl;
Line(l96) = {p96, p97};
l97 = newl;
Line(l97) = {p97, p98};
l98 = newl;
Line(l98) = {p98, p99};
l99 = newl;
Line(l99) = {p99, p100};
l100 = newl;
Line(l100) = {p100, p101};
l101 = newl;
Line(l101) = {p101, p102};
l102 = newl;
Line(l102) = {p102, p103};
l103 = newl;
Line(l103) = {p103, p104};
l104 = newl;
Line(l104) = {p104, p105};
l105 = newl;
Line(l105) = {p105, p0};
ll0 = newll;
Line Loop(ll0) = {l0, l1, l2, l3, l4, l5, l6, l7, l8, l9, l10, l11, l12, l13, l14, l15, l16, l17, l18, l19, l20, l21, l22, l23, l24, l25, l26, l27, l28, l29, l30, l31, l32, l33, l34, l35, l36, l37, l38, l39, l40, l41, l42, l43, l44, l45, l46, l47, l48, l49, l50, l51, l52, l53, l54, l55, l56, l57, l58, l59, l60, l61, l62, l63, l64, l65, l66, l67, l68, l69, l70, l71, l72, l73, l74, l75, l76, l77, l78, l79, l80, l81, l82, l83, l84, l85, l86, l87, l88, l89, l90, l91, l92, l93, l94, l95, l96, l97, l98, l99, l100, l101, l102, l103, l104, l105};

p106 = newp;
Point(p106) = {-1.0, -1.0448420252728932, 0.0, 0.05};
p107 = newp;
Point(p107) = {4.0, -1.0448420252728932, 0.0, 0.05};
p108 = newp;
Point(p108) = {4.0, 1.07918, 0.0, 0.05};
p109 = newp;
Point(p109) = {-1.0, 1.07918, 0.0, 0.05};

l106 = newl;
Line(l106) = {p106, p107};
l107 = newl;
Line(l107) = {p107, p108};
l108 = newl;
Line(l108) = {p108, p109};
l109 = newl;
Line(l109) = {p109, p106};
ll1 = newll;
Line Loop(ll1) = {l106, l107, l108, l109};

s0 = news;
Plane Surface(s0) = {ll1,ll0};

ids[] = Extrude {0, 0, 0.1}
{
	Surface{s0};
	Layers{1};
	Recombine;
};


Physical Surface("outlet") = {ids[3]};
Physical Surface("walls") = {ids[{2,4}]};
Physical Surface("inlet") = {ids[5]};
Physical Surface("airfoil") = {ids[{6:ll0+4}]};
Physical Surface("frontAndBack") = {ids[0], s0};
Physical Volume("volume") = {ids[1]};
