// This code was created by PyGmsh v3.2.2.
p1050 = newp;
Point(p1050) = {0.93866899999999998, 0.012538000000000001, 0.0, 0.05};
p1051 = newp;
Point(p1051) = {0.93469875000000002, 0.013304750000000001, 0.0, 0.05};
p1052 = newp;
Point(p1052) = {0.93072850000000007, 0.014071500000000001, 0.0, 0.05};
p1053 = newp;
Point(p1053) = {0.92675825000000001, 0.014838250000000001, 0.0, 0.05};
p1054 = newp;
Point(p1054) = {0.92278800000000005, 0.015605000000000001, 0.0, 0.05};
p1055 = newp;
Point(p1055) = {0.91840100000000002, 0.016431250000000001, 0.0, 0.05};
p1056 = newp;
Point(p1056) = {0.9140140000000001, 0.017257500000000002, 0.0, 0.05};
p1057 = newp;
Point(p1057) = {0.90962700000000007, 0.018083750000000003, 0.0, 0.05};
p1058 = newp;
Point(p1058) = {0.90524000000000004, 0.01891, 0.0, 0.05};
p1059 = newp;
Point(p1059) = {0.90045300000000006, 0.019787249999999999, 0.0, 0.05};
p1060 = newp;
Point(p1060) = {0.89566600000000007, 0.020664500000000002, 0.0, 0.05};
p1061 = newp;
Point(p1061) = {0.89087899999999998, 0.021541750000000002, 0.0, 0.05};
p1062 = newp;
Point(p1062) = {0.88609199999999999, 0.022419000000000001, 0.0, 0.05};
p1063 = newp;
Point(p1063) = {0.88092324999999994, 0.023338250000000005, 0.0, 0.05};
p1064 = newp;
Point(p1064) = {0.87575449999999999, 0.024257500000000001, 0.0, 0.05};
p1065 = newp;
Point(p1065) = {0.87058575000000005, 0.025176749999999998, 0.0, 0.05};
p1066 = newp;
Point(p1066) = {0.86541699999999999, 0.026096000000000001, 0.0, 0.05};
p1067 = newp;
Point(p1067) = {0.85988624999999996, 0.027047749999999999, 0.0, 0.05};
p1068 = newp;
Point(p1068) = {0.85435550000000005, 0.0279995, 0.0, 0.05};
p1069 = newp;
Point(p1069) = {0.84882474999999991, 0.028951249999999998, 0.0, 0.05};
p1070 = newp;
Point(p1070) = {0.84329399999999999, 0.029902999999999999, 0.0, 0.05};
p1071 = newp;
Point(p1071) = {0.83742224999999992, 0.030878249999999999, 0.0, 0.05};
p1072 = newp;
Point(p1072) = {0.83155049999999997, 0.0318535, 0.0, 0.05};
p1073 = newp;
Point(p1073) = {0.82567875000000002, 0.032828750000000004, 0.0, 0.05};
p1074 = newp;
Point(p1074) = {0.81980699999999995, 0.033804000000000001, 0.0, 0.05};
p1075 = newp;
Point(p1075) = {0.81361699999999992, 0.034793000000000004, 0.0, 0.05};
p1076 = newp;
Point(p1076) = {0.80742699999999989, 0.035782000000000001, 0.0, 0.05};
p1077 = newp;
Point(p1077) = {0.80123699999999998, 0.036770999999999998, 0.0, 0.05};
p1078 = newp;
Point(p1078) = {0.79504699999999995, 0.037760000000000002, 0.0, 0.05};
p1079 = newp;
Point(p1079) = {0.78856250000000006, 0.038753500000000003, 0.0, 0.05};
p1080 = newp;
Point(p1080) = {0.78207800000000005, 0.039747000000000005, 0.0, 0.05};
p1081 = newp;
Point(p1081) = {0.77559349999999994, 0.040740499999999999, 0.0, 0.05};
p1082 = newp;
Point(p1082) = {0.76910900000000004, 0.041734, 0.0, 0.05};
p1083 = newp;
Point(p1083) = {0.76235524999999993, 0.042722750000000004, 0.0, 0.05};
p1084 = newp;
Point(p1084) = {0.75560150000000004, 0.0437115, 0.0, 0.05};
p1085 = newp;
Point(p1085) = {0.74884775000000015, 0.044700249999999997, 0.0, 0.05};
p1086 = newp;
Point(p1086) = {0.74209400000000003, 0.045689, 0.0, 0.05};
p1087 = newp;
Point(p1087) = {0.73509725000000015, 0.046663749999999997, 0.0, 0.05};
p1088 = newp;
Point(p1088) = {0.72810050000000004, 0.0476385, 0.0, 0.05};
p1089 = newp;
Point(p1089) = {0.72110374999999993, 0.048613250000000004, 0.0, 0.05};
p1090 = newp;
Point(p1090) = {0.71410700000000005, 0.049588, 0.0, 0.05};
p1091 = newp;
Point(p1091) = {0.70689475000000002, 0.050539500000000001, 0.0, 0.05};
p1092 = newp;
Point(p1092) = {0.69968249999999999, 0.051490999999999995, 0.0, 0.05};
p1093 = newp;
Point(p1093) = {0.69247024999999995, 0.052442499999999996, 0.0, 0.05};
p1094 = newp;
Point(p1094) = {0.68525800000000003, 0.053393999999999997, 0.0, 0.05};
p1095 = newp;
Point(p1095) = {0.67785825, 0.054313249999999993, 0.0, 0.05};
p1096 = newp;
Point(p1096) = {0.67045850000000007, 0.055232499999999997, 0.0, 0.05};
p1097 = newp;
Point(p1097) = {0.66305875000000003, 0.05615175, 0.0, 0.05};
p1098 = newp;
Point(p1098) = {0.65565899999999999, 0.057070999999999997, 0.0, 0.05};
p1099 = newp;
Point(p1099) = {0.64810075, 0.057949250000000001, 0.0, 0.05};
p1100 = newp;
Point(p1100) = {0.64054250000000001, 0.058827499999999998, 0.0, 0.05};
p1101 = newp;
Point(p1101) = {0.63298425000000003, 0.059705750000000002, 0.0, 0.05};
p1102 = newp;
Point(p1102) = {0.62542600000000004, 0.060583999999999999, 0.0, 0.05};
p1103 = newp;
Point(p1103) = {0.6177395, 0.061412250000000002, 0.0, 0.05};
p1104 = newp;
Point(p1104) = {0.61005299999999996, 0.062240499999999997, 0.0, 0.05};
p1105 = newp;
Point(p1105) = {0.60236650000000003, 0.063068750000000007, 0.0, 0.05};
p1106 = newp;
Point(p1106) = {0.59467999999999999, 0.063896999999999995, 0.0, 0.05};
p1107 = newp;
Point(p1107) = {0.58689550000000001, 0.064667000000000002, 0.0, 0.05};
p1108 = newp;
Point(p1108) = {0.57911099999999993, 0.065436999999999995, 0.0, 0.05};
p1109 = newp;
Point(p1109) = {0.57132649999999996, 0.066206999999999988, 0.0, 0.05};
p1110 = newp;
Point(p1110) = {0.56354199999999999, 0.066976999999999995, 0.0, 0.05};
p1111 = newp;
Point(p1111) = {0.55569049999999998, 0.06767999999999999, 0.0, 0.05};
p1112 = newp;
Point(p1112) = {0.54783899999999996, 0.068382999999999999, 0.0, 0.05};
p1113 = newp;
Point(p1113) = {0.53998750000000006, 0.069086000000000009, 0.0, 0.05};
p1114 = newp;
Point(p1114) = {0.53213600000000005, 0.069789000000000004, 0.0, 0.05};
p1115 = newp;
Point(p1115) = {0.52424875000000004, 0.070417500000000008, 0.0, 0.05};
p1116 = newp;
Point(p1116) = {0.51636150000000003, 0.071045999999999998, 0.0, 0.05};
p1117 = newp;
Point(p1117) = {0.50847425000000002, 0.071674500000000002, 0.0, 0.05};
p1118 = newp;
Point(p1118) = {0.500587, 0.072303000000000006, 0.0, 0.05};
p1119 = newp;
Point(p1119) = {0.49269575000000004, 0.072848750000000004, 0.0, 0.05};
p1120 = newp;
Point(p1120) = {0.48480449999999997, 0.073394500000000001, 0.0, 0.05};
p1121 = newp;
Point(p1121) = {0.47691324999999996, 0.073940249999999999, 0.0, 0.05};
p1122 = newp;
Point(p1122) = {0.46902199999999999, 0.074485999999999997, 0.0, 0.05};
p1123 = newp;
Point(p1123) = {0.46115824999999999, 0.074942499999999995, 0.0, 0.05};
p1124 = newp;
Point(p1124) = {0.45329449999999999, 0.075398999999999994, 0.0, 0.05};
p1125 = newp;
Point(p1125) = {0.44543074999999999, 0.075855500000000006, 0.0, 0.05};
p1126 = newp;
Point(p1126) = {0.43756699999999998, 0.076312000000000005, 0.0, 0.05};
p1127 = newp;
Point(p1127) = {0.42976274999999997, 0.076672000000000004, 0.0, 0.05};
p1128 = newp;
Point(p1128) = {0.42195850000000001, 0.077032000000000003, 0.0, 0.05};
p1129 = newp;
Point(p1129) = {0.41415425, 0.077392000000000002, 0.0, 0.05};
p1130 = newp;
Point(p1130) = {0.40634999999999999, 0.077752000000000002, 0.0, 0.05};
p1131 = newp;
Point(p1131) = {0.39858674999999999, 0.077999750000000007, 0.0, 0.05};
p1132 = newp;
Point(p1132) = {0.39082349999999999, 0.078247499999999998, 0.0, 0.05};
p1133 = newp;
Point(p1133) = {0.38306024999999999, 0.078495249999999989, 0.0, 0.05};
p1134 = newp;
Point(p1134) = {0.37529699999999999, 0.078742999999999994, 0.0, 0.05};
p1135 = newp;
Point(p1135) = {0.36764275000000002, 0.078852249999999985, 0.0, 0.05};
p1136 = newp;
Point(p1136) = {0.35998849999999999, 0.07896149999999999, 0.0, 0.05};
p1137 = newp;
Point(p1137) = {0.35233425000000002, 0.079070749999999995, 0.0, 0.05};
p1138 = newp;
Point(p1138) = {0.34467999999999999, 0.07918, 0.0, 0.05};
p1139 = newp;
Point(p1139) = {0.33717950000000002, 0.079147750000000003, 0.0, 0.05};
p1140 = newp;
Point(p1140) = {0.329679, 0.079115500000000005, 0.0, 0.05};
p1141 = newp;
Point(p1141) = {0.32217850000000003, 0.079083249999999994, 0.0, 0.05};
p1142 = newp;
Point(p1142) = {0.31467800000000001, 0.079050999999999996, 0.0, 0.05};
p1143 = newp;
Point(p1143) = {0.307363, 0.078877000000000003, 0.0, 0.05};
p1144 = newp;
Point(p1144) = {0.30004799999999998, 0.078702999999999995, 0.0, 0.05};
p1145 = newp;
Point(p1145) = {0.29273300000000002, 0.078528999999999988, 0.0, 0.05};
p1146 = newp;
Point(p1146) = {0.28541800000000001, 0.078354999999999994, 0.0, 0.05};
p1147 = newp;
Point(p1147) = {0.27831975000000003, 0.078040249999999992, 0.0, 0.05};
p1148 = newp;
Point(p1148) = {0.2712215, 0.077725500000000003, 0.0, 0.05};
p1149 = newp;
Point(p1149) = {0.26412324999999998, 0.07741075, 0.0, 0.05};
p1150 = newp;
Point(p1150) = {0.257025, 0.077095999999999998, 0.0, 0.05};
p1151 = newp;
Point(p1151) = {0.25017325000000001, 0.076643749999999997, 0.0, 0.05};
p1152 = newp;
Point(p1152) = {0.2433215, 0.076191499999999995, 0.0, 0.05};
p1153 = newp;
Point(p1153) = {0.23646974999999998, 0.075739250000000008, 0.0, 0.05};
p1154 = newp;
Point(p1154) = {0.22961799999999999, 0.075287000000000007, 0.0, 0.05};
p1155 = newp;
Point(p1155) = {0.22378879501112273, 0.074768011287437736, 0.0, 0.05};
p1156 = newp;
Point(p1156) = {0.21795959002224546, 0.074249022574875451, 0.0, 0.05};
p1157 = newp;
Point(p1157) = {0.21213038503336823, 0.07373003386231318, 0.0, 0.05};
p1158 = newp;
Point(p1158) = {0.20630118004449097, 0.073211045149750908, 0.0, 0.05};
p1159 = newp;
Point(p1159) = {0.20604995795891348, 0.075698390615044797, 0.0, 0.05};
p1160 = newp;
Point(p1160) = {0.20008093217362199, 0.075093880297881638, 0.0, 0.05};
p1161 = newp;
Point(p1161) = {0.20033215425919948, 0.072606534832587749, 0.0, 0.05};
p1162 = newp;
Point(p1162) = {0.17822199999999999, 0.070096000000000006, 0.0, 0.05};
p1163 = newp;
Point(p1163) = {0.154449, 0.066769999999999996, 0.0, 0.05};
p1164 = newp;
Point(p1164) = {0.13209399999999999, 0.063005000000000005, 0.0, 0.05};
p1165 = newp;
Point(p1165) = {0.111248, 0.058841999999999998, 0.0, 0.05};
p1166 = newp;
Point(p1166) = {0.091995999999999994, 0.054324999999999998, 0.0, 0.05};
p1167 = newp;
Point(p1167) = {0.074414999999999995, 0.049503999999999999, 0.0, 0.05};
p1168 = newp;
Point(p1168) = {0.058573, 0.044427000000000001, 0.0, 0.05};
p1169 = newp;
Point(p1169) = {0.044532000000000002, 0.039143999999999998, 0.0, 0.05};
p1170 = newp;
Point(p1170) = {0.032342999999999997, 0.033703999999999998, 0.0, 0.05};
p1171 = newp;
Point(p1171) = {0.022051000000000001, 0.028152, 0.0, 0.05};
p1172 = newp;
Point(p1172) = {0.013691999999999999, 0.022530999999999999, 0.0, 0.05};
p1173 = newp;
Point(p1173) = {0.0072919999999999999, 0.016878000000000001, 0.0, 0.05};
p1174 = newp;
Point(p1174) = {0.0028700000000000002, 0.011224, 0.0, 0.05};
p1175 = newp;
Point(p1175) = {0.00043899999999999999, 0.0055919999999999997, 0.0, 0.05};
p1176 = newp;
Point(p1176) = {0.0, 0.0, 0.0, 0.05};
p1177 = newp;
Point(p1177) = {0.0015349999999999999, -0.0053949999999999996, 0.0, 0.05};
p1178 = newp;
Point(p1178) = {0.0050150000000000004, -0.010439, 0.0, 0.05};
p1179 = newp;
Point(p1179) = {0.010421, -0.015126000000000001, 0.0, 0.05};
p1180 = newp;
Point(p1180) = {0.017725000000000001, -0.019451, 0.0, 0.05};
p1181 = newp;
Point(p1181) = {0.026891999999999999, -0.023408000000000002, 0.0, 0.05};
p1182 = newp;
Point(p1182) = {0.037879999999999997, -0.02699, 0.0, 0.05};
p1183 = newp;
Point(p1183) = {0.050640999999999999, -0.030193000000000001, 0.0, 0.05};
p1184 = newp;
Point(p1184) = {0.065119999999999997, -0.033014000000000002, 0.0, 0.05};
p1185 = newp;
Point(p1185) = {0.081256999999999996, -0.035451000000000003, 0.0, 0.05};
p1186 = newp;
Point(p1186) = {0.098987000000000006, -0.037506999999999999, 0.0, 0.05};
p1187 = newp;
Point(p1187) = {0.118239, -0.039184999999999998, 0.0, 0.05};
p1188 = newp;
Point(p1188) = {0.138937, -0.040493000000000001, 0.0, 0.05};
p1189 = newp;
Point(p1189) = {0.16100400000000001, -0.041444000000000002, 0.0, 0.05};
p1190 = newp;
Point(p1190) = {0.18435399999999999, -0.042054000000000001, 0.0, 0.05};
p1191 = newp;
Point(p1191) = {0.20590220787849947, -0.042307683887766269, 0.0, 0.05};
p1192 = newp;
Point(p1192) = {0.2058882143525757, -0.04480764472370595, 0.0, 0.05};
p1193 = newp;
Point(p1193) = {0.21188800632819654, -0.044842025272893139, 0.0, 0.05};
p1194 = newp;
Point(p1194) = {0.21190199985412031, -0.042342064436953458, 0.0, 0.05};
p1195 = newp;
Point(p1195) = {0.21756524989059023, -0.04234029832771509, 0.0, 0.05};
p1196 = newp;
Point(p1196) = {0.22322849992706018, -0.042338532218476728, 0.0, 0.05};
p1197 = newp;
Point(p1197) = {0.22889174996353007, -0.042336766109238359, 0.0, 0.05};
p1198 = newp;
Point(p1198) = {0.23455500000000001, -0.042334999999999998, 0.0, 0.05};
p1199 = newp;
Point(p1199) = {0.24122149999999998, -0.042265749999999991, 0.0, 0.05};
p1200 = newp;
Point(p1200) = {0.247888, -0.042196499999999998, 0.0, 0.05};
p1201 = newp;
Point(p1201) = {0.25455450000000002, -0.042127250000000005, 0.0, 0.05};
p1202 = newp;
Point(p1202) = {0.26122099999999998, -0.042057999999999998, 0.0, 0.05};
p1203 = newp;
Point(p1203) = {0.26811625, -0.041928750000000001, 0.0, 0.05};
p1204 = newp;
Point(p1204) = {0.27501149999999996, -0.041799500000000003, 0.0, 0.05};
p1205 = newp;
Point(p1205) = {0.28190674999999998, -0.041670250000000006, 0.0, 0.05};
p1206 = newp;
Point(p1206) = {0.288802, -0.041541000000000002, 0.0, 0.05};
p1207 = newp;
Point(p1207) = {0.29590074999999999, -0.041360000000000001, 0.0, 0.05};
p1208 = newp;
Point(p1208) = {0.30299949999999998, -0.041179, 0.0, 0.05};
p1209 = newp;
Point(p1209) = {0.31009825000000002, -0.040998, 0.0, 0.05};
p1210 = newp;
Point(p1210) = {0.31719700000000001, -0.040816999999999999, 0.0, 0.05};
p1211 = newp;
Point(p1211) = {0.32447350000000003, -0.040593500000000005, 0.0, 0.05};
p1212 = newp;
Point(p1212) = {0.33174999999999999, -0.040370000000000003, 0.0, 0.05};
p1213 = newp;
Point(p1213) = {0.33902650000000001, -0.040146500000000002, 0.0, 0.05};
p1214 = newp;
Point(p1214) = {0.34630300000000003, -0.039923, 0.0, 0.05};
p1215 = newp;
Point(p1215) = {0.3537305, -0.039665249999999999, 0.0, 0.05};
p1216 = newp;
Point(p1216) = {0.36115799999999998, -0.039407499999999998, 0.0, 0.05};
p1217 = newp;
Point(p1217) = {0.36858550000000001, -0.039149749999999997, 0.0, 0.05};
p1218 = newp;
Point(p1218) = {0.37601299999999999, -0.038892000000000003, 0.0, 0.05};
p1219 = newp;
Point(p1219) = {0.383577, -0.038608249999999997, 0.0, 0.05};
p1220 = newp;
Point(p1220) = {0.39114099999999996, -0.038324499999999997, 0.0, 0.05};
p1221 = newp;
Point(p1221) = {0.39870499999999998, -0.038040749999999998, 0.0, 0.05};
p1222 = newp;
Point(p1222) = {0.40626899999999999, -0.037756999999999999, 0.0, 0.05};
p1223 = newp;
Point(p1223) = {0.41397649999999997, -0.037434499999999996, 0.0, 0.05};
p1224 = newp;
Point(p1224) = {0.421684, -0.037111999999999999, 0.0, 0.05};
p1225 = newp;
Point(p1225) = {0.42939150000000004, -0.036789500000000003, 0.0, 0.05};
p1226 = newp;
Point(p1226) = {0.43709900000000002, -0.036466999999999999, 0.0, 0.05};
p1227 = newp;
Point(p1227) = {0.44487100000000002, -0.036102499999999996, 0.0, 0.05};
p1228 = newp;
Point(p1228) = {0.45264300000000002, -0.035737999999999999, 0.0, 0.05};
p1229 = newp;
Point(p1229) = {0.46041500000000002, -0.035373500000000002, 0.0, 0.05};
p1230 = newp;
Point(p1230) = {0.46818700000000002, -0.035008999999999998, 0.0, 0.05};
p1231 = newp;
Point(p1231) = {0.47599350000000007, -0.034610249999999995, 0.0, 0.05};
p1232 = newp;
Point(p1232) = {0.48380000000000001, -0.034211499999999999, 0.0, 0.05};
p1233 = newp;
Point(p1233) = {0.49160649999999995, -0.033812750000000003, 0.0, 0.05};
p1234 = newp;
Point(p1234) = {0.499413, -0.033413999999999999, 0.0, 0.05};
p1235 = newp;
Point(p1235) = {0.50722325000000001, -0.032987500000000003, 0.0, 0.05};
p1236 = newp;
Point(p1236) = {0.51503349999999992, -0.032561, 0.0, 0.05};
p1237 = newp;
Point(p1237) = {0.52284374999999994, -0.032134499999999996, 0.0, 0.05};
p1238 = newp;
Point(p1238) = {0.53065399999999996, -0.031708, 0.0, 0.05};
p1239 = newp;
Point(p1239) = {0.53843825000000001, -0.031260250000000003, 0.0, 0.05};
p1240 = newp;
Point(p1240) = {0.54622250000000006, -0.0308125, 0.0, 0.05};
p1241 = newp;
Point(p1241) = {0.5540067500000001, -0.030364749999999999, 0.0, 0.05};
p1242 = newp;
Point(p1242) = {0.56179100000000004, -0.029916999999999999, 0.0, 0.05};
p1243 = newp;
Point(p1243) = {0.56951850000000004, -0.029454250000000001, 0.0, 0.05};
p1244 = newp;
Point(p1244) = {0.57724600000000004, -0.0289915, 0.0, 0.05};
p1245 = newp;
Point(p1245) = {0.58497350000000004, -0.028528749999999999, 0.0, 0.05};
p1246 = newp;
Point(p1246) = {0.59270100000000003, -0.028066000000000001, 0.0, 0.05};
p1247 = newp;
Point(p1247) = {0.60034175000000012, -0.0275935, 0.0, 0.05};
p1248 = newp;
Point(p1248) = {0.60798250000000009, -0.027120999999999999, 0.0, 0.05};
p1249 = newp;
Point(p1249) = {0.61562325000000007, -0.026648499999999999, 0.0, 0.05};
p1250 = newp;
Point(p1250) = {0.62326400000000004, -0.026176000000000001, 0.0, 0.05};
p1251 = newp;
Point(p1251) = {0.63078750000000006, -0.02569925, 0.0, 0.05};
p1252 = newp;
Point(p1252) = {0.63831100000000007, -0.025222500000000002, 0.0, 0.05};
p1253 = newp;
Point(p1253) = {0.64583450000000009, -0.02474575, 0.0, 0.05};
p1254 = newp;
Point(p1254) = {0.65335799999999999, -0.024268999999999999, 0.0, 0.05};
p1255 = newp;
Point(p1255) = {0.66073525, -0.02379175, 0.0, 0.05};
p1256 = newp;
Point(p1256) = {0.6681125, -0.023314500000000002, 0.0, 0.05};
p1257 = newp;
Point(p1257) = {0.67548975, -0.02283725, 0.0, 0.05};
p1258 = newp;
Point(p1258) = {0.682867, -0.022360000000000001, 0.0, 0.05};
p1259 = newp;
Point(p1259) = {0.69006825000000005, -0.0218865, 0.0, 0.05};
p1260 = newp;
Point(p1260) = {0.69726949999999999, -0.021413000000000001, 0.0, 0.05};
p1261 = newp;
Point(p1261) = {0.70447074999999992, -0.020939500000000003, 0.0, 0.05};
p1262 = newp;
Point(p1262) = {0.71167199999999997, -0.020466000000000002, 0.0, 0.05};
p1263 = newp;
Point(p1263) = {0.71866874999999997, -0.019999500000000003, 0.0, 0.05};
p1264 = newp;
Point(p1264) = {0.72566549999999996, -0.019533000000000002, 0.0, 0.05};
p1265 = newp;
Point(p1265) = {0.73266224999999996, -0.0190665, 0.0, 0.05};
p1266 = newp;
Point(p1266) = {0.73965899999999996, -0.018599999999999998, 0.0, 0.05};
p1267 = newp;
Point(p1267) = {0.74642374999999994, -0.0181435, 0.0, 0.05};
p1268 = newp;
Point(p1268) = {0.75318850000000004, -0.017687000000000001, 0.0, 0.05};
p1269 = newp;
Point(p1269) = {0.75995325000000002, -0.017230500000000003, 0.0, 0.05};
p1270 = newp;
Point(p1270) = {0.76671800000000001, -0.016774000000000001, 0.0, 0.05};
p1271 = newp;
Point(p1271) = {0.77322299999999999, -0.016330250000000001, 0.0, 0.05};
p1272 = newp;
Point(p1272) = {0.77972799999999998, -0.015886500000000001, 0.0, 0.05};
p1273 = newp;
Point(p1273) = {0.78623300000000007, -0.015442750000000002, 0.0, 0.05};
p1274 = newp;
Point(p1274) = {0.79273800000000005, -0.014999, 0.0, 0.05};
p1275 = newp;
Point(p1275) = {0.79895775000000002, -0.01457025, 0.0, 0.05};
p1276 = newp;
Point(p1276) = {0.8051775000000001, -0.014141500000000001, 0.0, 0.05};
p1277 = newp;
Point(p1277) = {0.81139724999999996, -0.013712749999999999, 0.0, 0.05};
p1278 = newp;
Point(p1278) = {0.81761700000000004, -0.013284000000000001, 0.0, 0.05};
p1279 = newp;
Point(p1279) = {0.82352599999999998, -0.01287225, 0.0, 0.05};
p1280 = newp;
Point(p1280) = {0.82943500000000003, -0.012460499999999999, 0.0, 0.05};
p1281 = newp;
Point(p1281) = {0.83534400000000009, -0.01204875, 0.0, 0.05};
p1282 = newp;
Point(p1282) = {0.84125300000000003, -0.011637, 0.0, 0.05};
p1283 = newp;
Point(p1283) = {0.84682750000000007, -0.01124475, 0.0, 0.05};
p1284 = newp;
Point(p1284) = {0.85240199999999999, -0.010852500000000001, 0.0, 0.05};
p1285 = newp;
Point(p1285) = {0.85797649999999992, -0.010460250000000001, 0.0, 0.05};
p1286 = newp;
Point(p1286) = {0.86355099999999996, -0.010068000000000001, 0.0, 0.05};
p1287 = newp;
Point(p1287) = {0.86876849999999994, -0.0096967500000000005, 0.0, 0.05};
p1288 = newp;
Point(p1288) = {0.87398599999999993, -0.0093255000000000005, 0.0, 0.05};
p1289 = newp;
Point(p1289) = {0.87920350000000003, -0.0089542500000000004, 0.0, 0.05};
p1290 = newp;
Point(p1290) = {0.88442100000000001, -0.0085830000000000004, 0.0, 0.05};
p1291 = newp;
Point(p1291) = {0.88925999999999994, -0.008235000000000001, 0.0, 0.05};
p1292 = newp;
Point(p1292) = {0.89409899999999998, -0.0078869999999999999, 0.0, 0.05};
p1293 = newp;
Point(p1293) = {0.89893800000000013, -0.0075390000000000006, 0.0, 0.05};
p1294 = newp;
Point(p1294) = {0.90377700000000005, -0.0071910000000000003, 0.0, 0.05};
p1295 = newp;
Point(p1295) = {0.90821775000000016, -0.0068682500000000002, 0.0, 0.05};
p1296 = newp;
Point(p1296) = {0.91265850000000004, -0.0065455000000000001, 0.0, 0.05};
p1297 = newp;
Point(p1297) = {0.91709924999999992, -0.00622275, 0.0, 0.05};
p1298 = newp;
Point(p1298) = {0.92154000000000003, -0.0058999999999999999, 0.0, 0.05};
p1299 = newp;
Point(p1299) = {0.92556424999999998, -0.0056042499999999999, 0.0, 0.05};
p1300 = newp;
Point(p1300) = {0.92958850000000004, -0.0053084999999999999, 0.0, 0.05};
p1301 = newp;
Point(p1301) = {0.93361274999999999, -0.0050127499999999998, 0.0, 0.05};
p1302 = newp;
Point(p1302) = {0.93763700000000005, -0.0047169999999999998, 0.0, 0.05};
p1303 = newp;
Point(p1303) = {0.93784339999999999, -0.0012659999999999998, 0.0, 0.05};
p1304 = newp;
Point(p1304) = {0.93804980000000004, 0.0021850000000000012, 0.0, 0.05};
p1305 = newp;
Point(p1305) = {0.93825619999999998, 0.0056359999999999995, 0.0, 0.05};
p1306 = newp;
Point(p1306) = {0.93846260000000004, 0.0090870000000000013, 0.0, 0.05};
l1050 = newl;
Line(l1050) = {p1050, p1051};
l1051 = newl;
Line(l1051) = {p1051, p1052};
l1052 = newl;
Line(l1052) = {p1052, p1053};
l1053 = newl;
Line(l1053) = {p1053, p1054};
l1054 = newl;
Line(l1054) = {p1054, p1055};
l1055 = newl;
Line(l1055) = {p1055, p1056};
l1056 = newl;
Line(l1056) = {p1056, p1057};
l1057 = newl;
Line(l1057) = {p1057, p1058};
l1058 = newl;
Line(l1058) = {p1058, p1059};
l1059 = newl;
Line(l1059) = {p1059, p1060};
l1060 = newl;
Line(l1060) = {p1060, p1061};
l1061 = newl;
Line(l1061) = {p1061, p1062};
l1062 = newl;
Line(l1062) = {p1062, p1063};
l1063 = newl;
Line(l1063) = {p1063, p1064};
l1064 = newl;
Line(l1064) = {p1064, p1065};
l1065 = newl;
Line(l1065) = {p1065, p1066};
l1066 = newl;
Line(l1066) = {p1066, p1067};
l1067 = newl;
Line(l1067) = {p1067, p1068};
l1068 = newl;
Line(l1068) = {p1068, p1069};
l1069 = newl;
Line(l1069) = {p1069, p1070};
l1070 = newl;
Line(l1070) = {p1070, p1071};
l1071 = newl;
Line(l1071) = {p1071, p1072};
l1072 = newl;
Line(l1072) = {p1072, p1073};
l1073 = newl;
Line(l1073) = {p1073, p1074};
l1074 = newl;
Line(l1074) = {p1074, p1075};
l1075 = newl;
Line(l1075) = {p1075, p1076};
l1076 = newl;
Line(l1076) = {p1076, p1077};
l1077 = newl;
Line(l1077) = {p1077, p1078};
l1078 = newl;
Line(l1078) = {p1078, p1079};
l1079 = newl;
Line(l1079) = {p1079, p1080};
l1080 = newl;
Line(l1080) = {p1080, p1081};
l1081 = newl;
Line(l1081) = {p1081, p1082};
l1082 = newl;
Line(l1082) = {p1082, p1083};
l1083 = newl;
Line(l1083) = {p1083, p1084};
l1084 = newl;
Line(l1084) = {p1084, p1085};
l1085 = newl;
Line(l1085) = {p1085, p1086};
l1086 = newl;
Line(l1086) = {p1086, p1087};
l1087 = newl;
Line(l1087) = {p1087, p1088};
l1088 = newl;
Line(l1088) = {p1088, p1089};
l1089 = newl;
Line(l1089) = {p1089, p1090};
l1090 = newl;
Line(l1090) = {p1090, p1091};
l1091 = newl;
Line(l1091) = {p1091, p1092};
l1092 = newl;
Line(l1092) = {p1092, p1093};
l1093 = newl;
Line(l1093) = {p1093, p1094};
l1094 = newl;
Line(l1094) = {p1094, p1095};
l1095 = newl;
Line(l1095) = {p1095, p1096};
l1096 = newl;
Line(l1096) = {p1096, p1097};
l1097 = newl;
Line(l1097) = {p1097, p1098};
l1098 = newl;
Line(l1098) = {p1098, p1099};
l1099 = newl;
Line(l1099) = {p1099, p1100};
l1100 = newl;
Line(l1100) = {p1100, p1101};
l1101 = newl;
Line(l1101) = {p1101, p1102};
l1102 = newl;
Line(l1102) = {p1102, p1103};
l1103 = newl;
Line(l1103) = {p1103, p1104};
l1104 = newl;
Line(l1104) = {p1104, p1105};
l1105 = newl;
Line(l1105) = {p1105, p1106};
l1106 = newl;
Line(l1106) = {p1106, p1107};
l1107 = newl;
Line(l1107) = {p1107, p1108};
l1108 = newl;
Line(l1108) = {p1108, p1109};
l1109 = newl;
Line(l1109) = {p1109, p1110};
l1110 = newl;
Line(l1110) = {p1110, p1111};
l1111 = newl;
Line(l1111) = {p1111, p1112};
l1112 = newl;
Line(l1112) = {p1112, p1113};
l1113 = newl;
Line(l1113) = {p1113, p1114};
l1114 = newl;
Line(l1114) = {p1114, p1115};
l1115 = newl;
Line(l1115) = {p1115, p1116};
l1116 = newl;
Line(l1116) = {p1116, p1117};
l1117 = newl;
Line(l1117) = {p1117, p1118};
l1118 = newl;
Line(l1118) = {p1118, p1119};
l1119 = newl;
Line(l1119) = {p1119, p1120};
l1120 = newl;
Line(l1120) = {p1120, p1121};
l1121 = newl;
Line(l1121) = {p1121, p1122};
l1122 = newl;
Line(l1122) = {p1122, p1123};
l1123 = newl;
Line(l1123) = {p1123, p1124};
l1124 = newl;
Line(l1124) = {p1124, p1125};
l1125 = newl;
Line(l1125) = {p1125, p1126};
l1126 = newl;
Line(l1126) = {p1126, p1127};
l1127 = newl;
Line(l1127) = {p1127, p1128};
l1128 = newl;
Line(l1128) = {p1128, p1129};
l1129 = newl;
Line(l1129) = {p1129, p1130};
l1130 = newl;
Line(l1130) = {p1130, p1131};
l1131 = newl;
Line(l1131) = {p1131, p1132};
l1132 = newl;
Line(l1132) = {p1132, p1133};
l1133 = newl;
Line(l1133) = {p1133, p1134};
l1134 = newl;
Line(l1134) = {p1134, p1135};
l1135 = newl;
Line(l1135) = {p1135, p1136};
l1136 = newl;
Line(l1136) = {p1136, p1137};
l1137 = newl;
Line(l1137) = {p1137, p1138};
l1138 = newl;
Line(l1138) = {p1138, p1139};
l1139 = newl;
Line(l1139) = {p1139, p1140};
l1140 = newl;
Line(l1140) = {p1140, p1141};
l1141 = newl;
Line(l1141) = {p1141, p1142};
l1142 = newl;
Line(l1142) = {p1142, p1143};
l1143 = newl;
Line(l1143) = {p1143, p1144};
l1144 = newl;
Line(l1144) = {p1144, p1145};
l1145 = newl;
Line(l1145) = {p1145, p1146};
l1146 = newl;
Line(l1146) = {p1146, p1147};
l1147 = newl;
Line(l1147) = {p1147, p1148};
l1148 = newl;
Line(l1148) = {p1148, p1149};
l1149 = newl;
Line(l1149) = {p1149, p1150};
l1150 = newl;
Line(l1150) = {p1150, p1151};
l1151 = newl;
Line(l1151) = {p1151, p1152};
l1152 = newl;
Line(l1152) = {p1152, p1153};
l1153 = newl;
Line(l1153) = {p1153, p1154};
l1154 = newl;
Line(l1154) = {p1154, p1155};
l1155 = newl;
Line(l1155) = {p1155, p1156};
l1156 = newl;
Line(l1156) = {p1156, p1157};
l1157 = newl;
Line(l1157) = {p1157, p1158};
l1158 = newl;
Line(l1158) = {p1158, p1159};
l1159 = newl;
Line(l1159) = {p1159, p1160};
l1160 = newl;
Line(l1160) = {p1160, p1161};
l1161 = newl;
Line(l1161) = {p1161, p1162};
l1162 = newl;
Line(l1162) = {p1162, p1163};
l1163 = newl;
Line(l1163) = {p1163, p1164};
l1164 = newl;
Line(l1164) = {p1164, p1165};
l1165 = newl;
Line(l1165) = {p1165, p1166};
l1166 = newl;
Line(l1166) = {p1166, p1167};
l1167 = newl;
Line(l1167) = {p1167, p1168};
l1168 = newl;
Line(l1168) = {p1168, p1169};
l1169 = newl;
Line(l1169) = {p1169, p1170};
l1170 = newl;
Line(l1170) = {p1170, p1171};
l1171 = newl;
Line(l1171) = {p1171, p1172};
l1172 = newl;
Line(l1172) = {p1172, p1173};
l1173 = newl;
Line(l1173) = {p1173, p1174};
l1174 = newl;
Line(l1174) = {p1174, p1175};
l1175 = newl;
Line(l1175) = {p1175, p1176};
l1176 = newl;
Line(l1176) = {p1176, p1177};
l1177 = newl;
Line(l1177) = {p1177, p1178};
l1178 = newl;
Line(l1178) = {p1178, p1179};
l1179 = newl;
Line(l1179) = {p1179, p1180};
l1180 = newl;
Line(l1180) = {p1180, p1181};
l1181 = newl;
Line(l1181) = {p1181, p1182};
l1182 = newl;
Line(l1182) = {p1182, p1183};
l1183 = newl;
Line(l1183) = {p1183, p1184};
l1184 = newl;
Line(l1184) = {p1184, p1185};
l1185 = newl;
Line(l1185) = {p1185, p1186};
l1186 = newl;
Line(l1186) = {p1186, p1187};
l1187 = newl;
Line(l1187) = {p1187, p1188};
l1188 = newl;
Line(l1188) = {p1188, p1189};
l1189 = newl;
Line(l1189) = {p1189, p1190};
l1190 = newl;
Line(l1190) = {p1190, p1191};
l1191 = newl;
Line(l1191) = {p1191, p1192};
l1192 = newl;
Line(l1192) = {p1192, p1193};
l1193 = newl;
Line(l1193) = {p1193, p1194};
l1194 = newl;
Line(l1194) = {p1194, p1195};
l1195 = newl;
Line(l1195) = {p1195, p1196};
l1196 = newl;
Line(l1196) = {p1196, p1197};
l1197 = newl;
Line(l1197) = {p1197, p1198};
l1198 = newl;
Line(l1198) = {p1198, p1199};
l1199 = newl;
Line(l1199) = {p1199, p1200};
l1200 = newl;
Line(l1200) = {p1200, p1201};
l1201 = newl;
Line(l1201) = {p1201, p1202};
l1202 = newl;
Line(l1202) = {p1202, p1203};
l1203 = newl;
Line(l1203) = {p1203, p1204};
l1204 = newl;
Line(l1204) = {p1204, p1205};
l1205 = newl;
Line(l1205) = {p1205, p1206};
l1206 = newl;
Line(l1206) = {p1206, p1207};
l1207 = newl;
Line(l1207) = {p1207, p1208};
l1208 = newl;
Line(l1208) = {p1208, p1209};
l1209 = newl;
Line(l1209) = {p1209, p1210};
l1210 = newl;
Line(l1210) = {p1210, p1211};
l1211 = newl;
Line(l1211) = {p1211, p1212};
l1212 = newl;
Line(l1212) = {p1212, p1213};
l1213 = newl;
Line(l1213) = {p1213, p1214};
l1214 = newl;
Line(l1214) = {p1214, p1215};
l1215 = newl;
Line(l1215) = {p1215, p1216};
l1216 = newl;
Line(l1216) = {p1216, p1217};
l1217 = newl;
Line(l1217) = {p1217, p1218};
l1218 = newl;
Line(l1218) = {p1218, p1219};
l1219 = newl;
Line(l1219) = {p1219, p1220};
l1220 = newl;
Line(l1220) = {p1220, p1221};
l1221 = newl;
Line(l1221) = {p1221, p1222};
l1222 = newl;
Line(l1222) = {p1222, p1223};
l1223 = newl;
Line(l1223) = {p1223, p1224};
l1224 = newl;
Line(l1224) = {p1224, p1225};
l1225 = newl;
Line(l1225) = {p1225, p1226};
l1226 = newl;
Line(l1226) = {p1226, p1227};
l1227 = newl;
Line(l1227) = {p1227, p1228};
l1228 = newl;
Line(l1228) = {p1228, p1229};
l1229 = newl;
Line(l1229) = {p1229, p1230};
l1230 = newl;
Line(l1230) = {p1230, p1231};
l1231 = newl;
Line(l1231) = {p1231, p1232};
l1232 = newl;
Line(l1232) = {p1232, p1233};
l1233 = newl;
Line(l1233) = {p1233, p1234};
l1234 = newl;
Line(l1234) = {p1234, p1235};
l1235 = newl;
Line(l1235) = {p1235, p1236};
l1236 = newl;
Line(l1236) = {p1236, p1237};
l1237 = newl;
Line(l1237) = {p1237, p1238};
l1238 = newl;
Line(l1238) = {p1238, p1239};
l1239 = newl;
Line(l1239) = {p1239, p1240};
l1240 = newl;
Line(l1240) = {p1240, p1241};
l1241 = newl;
Line(l1241) = {p1241, p1242};
l1242 = newl;
Line(l1242) = {p1242, p1243};
l1243 = newl;
Line(l1243) = {p1243, p1244};
l1244 = newl;
Line(l1244) = {p1244, p1245};
l1245 = newl;
Line(l1245) = {p1245, p1246};
l1246 = newl;
Line(l1246) = {p1246, p1247};
l1247 = newl;
Line(l1247) = {p1247, p1248};
l1248 = newl;
Line(l1248) = {p1248, p1249};
l1249 = newl;
Line(l1249) = {p1249, p1250};
l1250 = newl;
Line(l1250) = {p1250, p1251};
l1251 = newl;
Line(l1251) = {p1251, p1252};
l1252 = newl;
Line(l1252) = {p1252, p1253};
l1253 = newl;
Line(l1253) = {p1253, p1254};
l1254 = newl;
Line(l1254) = {p1254, p1255};
l1255 = newl;
Line(l1255) = {p1255, p1256};
l1256 = newl;
Line(l1256) = {p1256, p1257};
l1257 = newl;
Line(l1257) = {p1257, p1258};
l1258 = newl;
Line(l1258) = {p1258, p1259};
l1259 = newl;
Line(l1259) = {p1259, p1260};
l1260 = newl;
Line(l1260) = {p1260, p1261};
l1261 = newl;
Line(l1261) = {p1261, p1262};
l1262 = newl;
Line(l1262) = {p1262, p1263};
l1263 = newl;
Line(l1263) = {p1263, p1264};
l1264 = newl;
Line(l1264) = {p1264, p1265};
l1265 = newl;
Line(l1265) = {p1265, p1266};
l1266 = newl;
Line(l1266) = {p1266, p1267};
l1267 = newl;
Line(l1267) = {p1267, p1268};
l1268 = newl;
Line(l1268) = {p1268, p1269};
l1269 = newl;
Line(l1269) = {p1269, p1270};
l1270 = newl;
Line(l1270) = {p1270, p1271};
l1271 = newl;
Line(l1271) = {p1271, p1272};
l1272 = newl;
Line(l1272) = {p1272, p1273};
l1273 = newl;
Line(l1273) = {p1273, p1274};
l1274 = newl;
Line(l1274) = {p1274, p1275};
l1275 = newl;
Line(l1275) = {p1275, p1276};
l1276 = newl;
Line(l1276) = {p1276, p1277};
l1277 = newl;
Line(l1277) = {p1277, p1278};
l1278 = newl;
Line(l1278) = {p1278, p1279};
l1279 = newl;
Line(l1279) = {p1279, p1280};
l1280 = newl;
Line(l1280) = {p1280, p1281};
l1281 = newl;
Line(l1281) = {p1281, p1282};
l1282 = newl;
Line(l1282) = {p1282, p1283};
l1283 = newl;
Line(l1283) = {p1283, p1284};
l1284 = newl;
Line(l1284) = {p1284, p1285};
l1285 = newl;
Line(l1285) = {p1285, p1286};
l1286 = newl;
Line(l1286) = {p1286, p1287};
l1287 = newl;
Line(l1287) = {p1287, p1288};
l1288 = newl;
Line(l1288) = {p1288, p1289};
l1289 = newl;
Line(l1289) = {p1289, p1290};
l1290 = newl;
Line(l1290) = {p1290, p1291};
l1291 = newl;
Line(l1291) = {p1291, p1292};
l1292 = newl;
Line(l1292) = {p1292, p1293};
l1293 = newl;
Line(l1293) = {p1293, p1294};
l1294 = newl;
Line(l1294) = {p1294, p1295};
l1295 = newl;
Line(l1295) = {p1295, p1296};
l1296 = newl;
Line(l1296) = {p1296, p1297};
l1297 = newl;
Line(l1297) = {p1297, p1298};
l1298 = newl;
Line(l1298) = {p1298, p1299};
l1299 = newl;
Line(l1299) = {p1299, p1300};
l1300 = newl;
Line(l1300) = {p1300, p1301};
l1301 = newl;
Line(l1301) = {p1301, p1302};
l1302 = newl;
Line(l1302) = {p1302, p1303};
l1303 = newl;
Line(l1303) = {p1303, p1304};
l1304 = newl;
Line(l1304) = {p1304, p1305};
l1305 = newl;
Line(l1305) = {p1305, p1306};
l1306 = newl;
Line(l1306) = {p1306, p1050};
ll14 = newll;
Line Loop(ll14) = {l1050, l1051, l1052, l1053, l1054, l1055, l1056, l1057, l1058, l1059, l1060, l1061, l1062, l1063, l1064, l1065, l1066, l1067, l1068, l1069, l1070, l1071, l1072, l1073, l1074, l1075, l1076, l1077, l1078, l1079, l1080, l1081, l1082, l1083, l1084, l1085, l1086, l1087, l1088, l1089, l1090, l1091, l1092, l1093, l1094, l1095, l1096, l1097, l1098, l1099, l1100, l1101, l1102, l1103, l1104, l1105, l1106, l1107, l1108, l1109, l1110, l1111, l1112, l1113, l1114, l1115, l1116, l1117, l1118, l1119, l1120, l1121, l1122, l1123, l1124, l1125, l1126, l1127, l1128, l1129, l1130, l1131, l1132, l1133, l1134, l1135, l1136, l1137, l1138, l1139, l1140, l1141, l1142, l1143, l1144, l1145, l1146, l1147, l1148, l1149, l1150, l1151, l1152, l1153, l1154, l1155, l1156, l1157, l1158, l1159, l1160, l1161, l1162, l1163, l1164, l1165, l1166, l1167, l1168, l1169, l1170, l1171, l1172, l1173, l1174, l1175, l1176, l1177, l1178, l1179, l1180, l1181, l1182, l1183, l1184, l1185, l1186, l1187, l1188, l1189, l1190, l1191, l1192, l1193, l1194, l1195, l1196, l1197, l1198, l1199, l1200, l1201, l1202, l1203, l1204, l1205, l1206, l1207, l1208, l1209, l1210, l1211, l1212, l1213, l1214, l1215, l1216, l1217, l1218, l1219, l1220, l1221, l1222, l1223, l1224, l1225, l1226, l1227, l1228, l1229, l1230, l1231, l1232, l1233, l1234, l1235, l1236, l1237, l1238, l1239, l1240, l1241, l1242, l1243, l1244, l1245, l1246, l1247, l1248, l1249, l1250, l1251, l1252, l1253, l1254, l1255, l1256, l1257, l1258, l1259, l1260, l1261, l1262, l1263, l1264, l1265, l1266, l1267, l1268, l1269, l1270, l1271, l1272, l1273, l1274, l1275, l1276, l1277, l1278, l1279, l1280, l1281, l1282, l1283, l1284, l1285, l1286, l1287, l1288, l1289, l1290, l1291, l1292, l1293, l1294, l1295, l1296, l1297, l1298, l1299, l1300, l1301, l1302, l1303, l1304, l1305, l1306};
p1307 = newp;
Point(p1307) = {-1.0, -1.0448420252728932, 0.0, 0.05};
p1308 = newp;
Point(p1308) = {3.938669, -1.0448420252728932, 0.0, 0.05};
p1309 = newp;
Point(p1309) = {3.938669, 1.07918, 0.0, 0.05};
p1310 = newp;
Point(p1310) = {-1.0, 1.07918, 0.0, 0.05};
l1307 = newl;
Line(l1307) = {p1307, p1308};
l1308 = newl;
Line(l1308) = {p1308, p1309};
l1309 = newl;
Line(l1309) = {p1309, p1310};
l1310 = newl;
Line(l1310) = {p1310, p1307};
ll15 = newll;
Line Loop(ll15) = {l1307, l1308, l1309, l1310};
s7 = news;
Plane Surface(s7) = {ll15,ll14};



ids[] = Extrude {0, 0, 0.1}
{
	Surface{s7};
	Layers{1};
	Recombine;
};


Physical Surface("outlet") = {ids[3]};
Physical Surface("walls") = {ids[{2,4}]};
Physical Surface("inlet") = {ids[5]};
Physical Surface("airfoil") = {ids[{6:ll14+4}]};
Physical Surface("frontAndBack") = {ids[0], s7};
Physical Volume("volume") = {ids[1]};
